<?xml version="1.0" encoding="UTF-8" standalone="no"?>
<svg
   xmlns:dc="http://purl.org/dc/elements/1.1/"
   xmlns:cc="http://creativecommons.org/ns#"
   xmlns:rdf="http://www.w3.org/1999/02/22-rdf-syntax-ns#"
   xmlns:svg="http://www.w3.org/2000/svg"
   xmlns="http://www.w3.org/2000/svg"
   xmlns:xlink="http://www.w3.org/1999/xlink"
   xmlns:sodipodi="http://sodipodi.sourceforge.net/DTD/sodipodi-0.dtd"
   xmlns:inkscape="http://www.inkscape.org/namespaces/inkscape"
   width="72.243622mm"
   height="61.207844mm"
   viewBox="0 0 72.243622 61.207844"
   version="1.1"
   id="svg980"
   inkscape:version="1.0.2 (e86c8708, 2021-01-15)"
   sodipodi:docname="ruby.svg">
  <defs
     id="defs974">
    <linearGradient
       inkscape:collect="always"
       id="linearGradient3858">
      <stop
         offset="0"
         style="stop-color:#ffffff"
         id="stop3860" />
      <stop
         offset="1"
         style="stop-color:#ffffff;stop-opacity:0"
         id="stop3862" />
    </linearGradient>
    <linearGradient
       inkscape:collect="always"
       id="linearGradient3876">
      <stop
         offset="0"
         style="stop-color:#ffffff"
         id="stop3878" />
      <stop
         offset="1"
         style="stop-color:#ffffff;stop-opacity:.077586"
         id="stop3880" />
    </linearGradient>
    <linearGradient
       inkscape:collect="always"
       xlink:href="#linearGradient3858"
       id="linearGradient1652"
       gradientUnits="userSpaceOnUse"
       x1="123.52"
       y1="518.38"
       x2="87.291"
       y2="508.31" />
    <linearGradient
       inkscape:collect="always"
       xlink:href="#linearGradient3858"
       id="linearGradient1654"
       gradientUnits="userSpaceOnUse"
       x1="351.12"
       y1="686.20001"
       x2="351.47"
       y2="691.92999" />
    <linearGradient
       inkscape:collect="always"
       xlink:href="#linearGradient3876"
       id="linearGradient1656"
       gradientUnits="userSpaceOnUse"
       x1="326.54999"
       y1="679.51001"
       x2="322.85999"
       y2="685.21997" />
  </defs>
  <sodipodi:namedview
     id="base"
     pagecolor="#ffffff"
     bordercolor="#666666"
     borderopacity="1.0"
     inkscape:pageopacity="0.0"
     inkscape:pageshadow="2"
     inkscape:zoom="0.35"
     inkscape:cx="172.09221"
     inkscape:cy="214.74503"
     inkscape:document-units="mm"
     inkscape:current-layer="layer1-9"
     inkscape:document-rotation="0"
     showgrid="false"
     fit-margin-top="0"
     fit-margin-left="0"
     fit-margin-right="0"
     fit-margin-bottom="0"
     inkscape:window-width="1252"
     inkscape:window-height="943"
     inkscape:window-x="0"
     inkscape:window-y="25"
     inkscape:window-maximized="0" />
  <metadata
     id="metadata977">
    <rdf:RDF>
      <cc:Work
         rdf:about="">
        <dc:format>image/svg+xml</dc:format>
        <dc:type
           rdf:resource="http://purl.org/dc/dcmitype/StillImage" />
        <dc:title></dc:title>
      </cc:Work>
    </rdf:RDF>
  </metadata>
  <g
     inkscape:label="Layer 1"
     inkscape:groupmode="layer"
     id="layer1"
     transform="translate(-60.300603,-91.348711)">
    <g
       transform="matrix(0.72309273,0,0,0.72309273,-104.38913,-321.52527)"
       inkscape:label="Layer 1"
       id="layer1-9">
      <g
         transform="matrix(1,0.001032,-0.001032,1,-74.123421,-88.825817)"
         id="g3884"
         inkscape:export-xdpi="150.22258"
         inkscape:export-ydpi="150.22258">
        <ellipse
           transform="matrix(0.38456,0.60266,-1.3835,0.1321,1022,543.21)"
           style="opacity:0.89224;fill:#8f0000;stroke:#cd0000"
           id="path3202"
           cx="103.03556"
           cy="512.68817"
           rx="21.213203"
           ry="21.465742" />
        <path
           d="m 337.3,684.34 14.41,30.74 14.74,-30.18 c -9.66,1.76 -19.49,1.26 -29.15,-0.56 z"
           style="opacity:0.89224;fill:#8f0000;fill-rule:evenodd;stroke:#cd0000;stroke-width:1px"
           sodipodi:nodetypes="cccc"
           id="path3204"
           inkscape:connector-curvature="0" />
        <path
           d="m 351.21,717.1 3.03,24.24 18.18,-27.53 c -5.75,1.98 -13.49,2.62 -21.21,3.29 z"
           style="opacity:0.89224;fill:#8f0000;fill-rule:evenodd;stroke:#cd0000;stroke-width:1px"
           sodipodi:nodetypes="cccc"
           id="path3206"
           inkscape:connector-curvature="0" />
        <path
           d="m 351.57,716.99 1.94,25.6 -23.76,-28.08 c 5.82,1.76 14.09,2.11 21.82,2.48 z"
           style="fill:#d52020;fill-rule:evenodd;stroke:#cd0000;stroke-width:1px"
           sodipodi:nodetypes="cccc"
           id="path3208"
           inkscape:connector-curvature="0" />
        <path
           d="m 352.22,716.09 14.71,-30.98 22.16,22.14 c -7.29,2.99 -24.3,11.28 -36.87,8.84 z"
           style="opacity:0.89224;fill:#990000;fill-rule:evenodd;stroke:#cd0000;stroke-width:1px"
           sodipodi:nodetypes="cccc"
           id="path3210"
           inkscape:connector-curvature="0" />
        <path
           d="m 367.02,684.7 c 10.72,-1.96 14.92,-5.52 16.61,-10.8 l 5.62,32.67 z"
           style="opacity:0.89224;fill:#be0e09;fill-rule:evenodd;stroke:#cd0000;stroke-width:1px"
           sodipodi:nodetypes="cccc"
           id="path3212"
           inkscape:connector-curvature="0" />
        <path
           d="m 384.52,677.2 15.27,5.36 c 1.12,2.49 3.33,7.57 1.52,12.23 -2.09,5.37 -6.23,9.33 -11.34,12.5 l -5.9,-30.36"
           style="opacity:0.89224;fill:#8f0000;fill-rule:evenodd;stroke:#cd0000;stroke-width:1px"
           sodipodi:nodetypes="ccscc"
           id="path3214"
           inkscape:connector-curvature="0" />
        <path
           d="m 381.4,668.45 c 1.49,1.98 2.07,3.93 2.85,8.03 l 15.81,5.63 z"
           style="opacity:0.80172;fill:#8f0000;fill-rule:evenodd;stroke:#cd0000;stroke-width:1px"
           sodipodi:nodetypes="cccc"
           id="path3216"
           inkscape:connector-curvature="0" />
        <path
           d="m 352.06,716.31 -14.53,-31.51 -28.41,20 c 4.85,4.45 30.37,13.96 42.94,11.51 z"
           style="opacity:0.89224;fill:#a60000;fill-rule:evenodd;stroke:#cd0000;stroke-width:1px"
           sodipodi:nodetypes="cccc"
           id="path3218"
           inkscape:connector-curvature="0" />
        <path
           d="m 336.96,684.47 c -10.21,-3.78 -14.98,-7.48 -15.73,-12.97 l -11.89,32.52 z"
           style="opacity:0.89224;fill:#8f0000;fill-rule:evenodd;stroke:#cd0000;stroke-width:1px"
           sodipodi:nodetypes="cccc"
           id="path3220"
           inkscape:connector-curvature="0" />
        <path
           d="m 322.88,668.14 -18.22,15.62 c -4.96,10.53 3.36,19.12 3.93,20.71 z"
           style="opacity:0.89224;fill:#ad0f0f;fill-rule:evenodd;stroke:#cd0000;stroke-width:1px"
           sodipodi:nodetypes="cccc"
           id="path3222"
           inkscape:connector-curvature="0" />
        <path
           d="m 308.38,704.78 45.25,38.4 -23.93,-29.28 c -8.24,-1.91 -14.48,-5.82 -21.32,-9.12 z"
           style="opacity:0.89224;fill:#8f0000;fill-rule:evenodd;stroke:#cd0000;stroke-width:1px"
           sodipodi:nodetypes="cccc"
           id="path3224"
           inkscape:connector-curvature="0" />
        <path
           d="m 389.78,706.99 -36.51,36.73 18.93,-29.47 c 6.29,-2.47 11.95,-4.95 17.58,-7.26 z"
           style="opacity:0.76724;fill:#990000;fill-rule:evenodd;stroke:#cd0000;stroke-width:1px"
           sodipodi:nodetypes="cccc"
           id="path3226"
           inkscape:connector-curvature="0" />
        <ellipse
           transform="matrix(0.38456,0.60266,-1.3835,0.1321,1022.8,542.72)"
           style="opacity:0.40517;fill:url(#linearGradient1652)"
           id="path3836"
           cx="103.03556"
           cy="512.68817"
           rx="21.213203"
           ry="21.465742" />
        <path
           d="m 337.97,684.95 14.41,30.74 14.74,-30.17 c -9.66,1.75 -19.49,1.25 -29.15,-0.57 z"
           style="opacity:0.89224;fill:url(#linearGradient1654);fill-rule:evenodd"
           sodipodi:nodetypes="cccc"
           id="path3856"
           inkscape:connector-curvature="0" />
        <path
           d="m 336.67,684.79 c -10.21,-3.78 -14.99,-7.48 -15.74,-12.98 l -11.88,32.53 z"
           style="opacity:0.89224;fill:url(#linearGradient1656);fill-rule:evenodd"
           sodipodi:nodetypes="cccc"
           id="path3866"
           inkscape:connector-curvature="0" />
      </g>
    </g>
  </g>
</svg>
